Rexnord-Assignment---Lukas-Kaestner.utf8.md
…
rexnord %>% 
  group_by(ProjType) %>%
  summarise(count = length(ProjType))

## # A tibble: 2 x 2
##   ProjType count
##   <fct>    <int>
## 1 Eng/Eng   6827
## 2 Std/Std   3179

rexnord %>% 
  group_by(IndSub) %>%
  summarise(count = length(IndSub))

## # A tibble: 53 x 2
##    IndSub                                  count
##    <fct>                                   <int>
##  1 Asphalt Processing and Paving Equipment    27
##  2 Auto and Truck                              3
##  3 Blower and Fans                             4
##  4 Cement Manufacturing                       20
##  5 Compressors - Centrifugal                   3
##  6 Compressors - Reciprocating                14
##  7 Construction Machinery Manufacturing       86
##  8 Container Making                            2
##  9 Cooling Systems                             8
## 10 Cooling Towers                              2
## #  with 43 more rows
…
